…
    Call:  stats::glm(formula = target ~ ., family = stats::binomial, data = data)

    Coefficients:
    (Intercept)          age          sex           cp     trestbps         chol  
       4.946390    -0.001948    -1.868410     0.867557    -0.026999    -0.007845  
            fbs      restecg      thalach        exang      oldpeak        slope  
      -0.065102     0.217100     0.025711    -0.776306    -0.442561     0.806031  
             ca         thal  
      -0.656924    -1.172524  

    Degrees of Freedom: 225 Total (i.e. Null);  212 Residual
    Null Deviance:      311.5 
    Residual Deviance: 160.6    AIC: 188.6

    # A tibble: 77 x 2
       .pred_0 .pred_1
         <dbl>   <dbl>
     1  0.332    0.668
     2  0.0200   0.980
     3  0.0165   0.984
     4  0.0103   0.990
     5  0.0467   0.953
     6  0.749    0.251
     7  0.0600   0.940
     8  0.150    0.850
     9  0.0611   0.939
    10  0.0992   0.901
    # ... with 67 more rows
…
